Test params: step 0.010000, total time 2.000000, motor angular speed 0.100000
time_seconds, velocity_linear, velocity_angular
0.000000, 0.000000, 0.00000
0.010000, 0.009304, 1.628261
0.020000, 0.000000, 1.860870
0.030000, -0.009304, 2.093479
0.040000, 0.000000, 2.326088
0.050000, 0.000000, 2.791305
0.060000, 0.000000, 2.791305
0.070000, 0.000000, 2.791305
0.080000, 0.000000, 2.791305
0.090000, -0.009304, 3.023914
0.100000, 0.009304, 3.023914
0.110000, -0.009304, 3.023914
0.120000, 0.009304, 3.023914
0.130000, -0.009304, 3.023914
0.140000, 0.009304, 3.023914
0.150000, 0.000000, 3.256523
0.160000, -0.009304, 3.023914
0.170000, 0.000000, 3.256523
0.180000, 0.000000, 2.791305
0.190000, 0.000000, 3.256523
0.200000, 0.000000, 3.256523
0.210000, 0.000000, 2.791305
0.220000, 0.000000, 3.256523
0.230000, 0.000000, 2.791305
0.240000, -0.009304, 3.023914
0.250000, 0.000000, 3.256523
0.260000, 0.009304, 3.023914
0.270000, -0.009304, 3.023914
0.280000, 0.009304, 3.023914
0.290000, 0.000000, 3.256523
0.300000, 0.000000, 3.256523
0.310000, 0.000000, 2.791305
0.320000, 0.000000, 3.256523
0.330000, 0.000000, 3.256523
0.340000, -0.009304, 3.023914
0.350000, 0.009304, 3.023914
0.360000, 0.000000, 3.256523
0.370000, -0.009304, 3.023914
0.380000, 0.009304, 3.023914
0.390000, -0.009304, 3.023914
0.400000, 0.000000, 3.256523
0.410000, 0.009304, 3.023914
0.420000, -0.009304, 3.023914
0.430000, 0.000000, 3.256523
0.440000, 0.000000, 3.256523
0.450000, -0.009304, 3.023914
0.460000, 0.009304, 3.023914
0.470000, 0.000000, 3.256523
0.480000, -0.009304, 3.023914
0.490000, 0.009304, 3.023914
0.500000, 0.000000, 3.256523
0.510000, -0.009304, 3.023914
0.520000, 0.009304, 3.023914
0.530000, 0.000000, 3.256523
0.540000, -0.009304, 3.023914
0.550000, 0.000000, 3.256523
0.560000, 0.009304, 3.023914
0.570000, 0.000000, 3.256523
0.580000, 0.000000, 3.256523
0.590000, 0.000000, 2.791305
0.600000, 0.000000, 3.256523
0.610000, -0.009304, 3.023914
0.620000, 0.009304, 3.023914
0.630000, 0.000000, 3.256523
0.640000, -0.009304, 3.023914
0.650000, 0.009304, 3.023914
0.660000, 0.000000, 3.256523
0.670000, -0.009304, 3.023914
0.680000, 0.009304, 3.023914
0.690000, -0.009304, 3.023914
0.700000, 0.000000, 3.256523
0.710000, 0.009304, 3.023914
0.720000, -0.009304, 3.023914
0.730000, 0.009304, 3.023914
0.740000, 0.000000, 3.256523
0.750000, -0.009304, 3.023914
0.760000, 0.009304, 3.023914
0.770000, -0.009304, 3.023914
0.780000, 0.009304, 3.023914
0.790000, 0.000000, 3.256523
0.800000, 0.000000, 2.791305
0.810000, 0.009304, 3.023914
0.820000, 0.000000, 3.256523
0.830000, 0.000000, 2.791305
0.840000, 0.000000, 3.256523
0.850000, 0.000000, 3.256523
0.860000, 0.009304, 3.023914
0.870000, -0.009304, 3.023914
0.880000, 0.000000, 3.256523
0.890000, 0.009304, 3.023914
0.900000, 0.000000, 3.256523
0.910000, -0.009304, 3.023914
0.920000, 0.009304, 3.023914
0.930000, -0.009304, 3.023914
0.940000, 0.000000, 3.256523
0.950000, 0.009304, 3.023914
0.960000, -0.009304, 3.023914
0.970000, 0.009304, 3.023914
0.980000, 0.000000, 3.256523
0.990000, 0.000000, 2.791305
1.000000, 0.000000, 3.256523
---------- decelerate
1.010000, 0.000000, 2.326088
1.020000, 0.000000, 1.395653
1.030000, 0.000000, 0.465218
1.040000, -0.009304, 0.232609
1.050000, 0.000000, 0.000000
1.060000, 0.000000, 0.000000
1.070000, 0.000000, 0.000000
1.080000, 0.000000, 0.000000
1.090000, 0.000000, 0.000000
1.100000, 0.000000, 0.000000
1.110000, 0.000000, 0.000000
1.120000, 0.000000, 0.000000
1.130000, 0.000000, 0.000000
1.140000, 0.000000, 0.000000
1.150000, 0.000000, 0.000000
1.160000, 0.000000, 0.000000
1.170000, 0.000000, 0.000000
1.180000, 0.000000, 0.000000
1.190000, 0.000000, 0.000000
1.200000, 0.000000, 0.000000
1.210000, 0.000000, 0.000000
1.220000, 0.000000, 0.000000
1.230000, 0.000000, 0.000000
1.240000, 0.000000, 0.000000
1.250000, 0.000000, 0.000000
1.260000, 0.000000, 0.000000
1.270000, 0.000000, 0.000000
1.280000, 0.000000, 0.000000
1.290000, 0.000000, 0.000000
1.300000, 0.000000, 0000000, 0.000000
1.360000, 0.000000
1.400000, 0.000000, 0.00
1.420000, 0.000000, 0.000000
1.430000, 0.000000, 0.000000
1.440, 0.000000
1.500000, 0.000000, 00
1.540000, 0.000000, 0.000000
0.000000, 0.000000
1.590000, 0.000000, 0.000000
1.600000, 0.0000000000
1.620000, 0.000000, 0.1.6600000, 000
1.740000, 0.000000, 0.000000
1.760000, 0.000000, 0.000000
1.770000.000000
1.820000, 0.000000, 0.00000
1.850000, 0.000000, 0.0000000, 0.000000
1.910000, 0.000000, 0.000000
1.920000, 0.000000, 0.000000
1.930000, 0.000000, 0.000000
1.940000, 0.000000, 0.000000
1.950000, 0.000000, 0.000000
1.960000, 0.000000, 0.000000
1.0000, 0.000000, 0.000000
1.990000Test param 0.000000, 4.652175
0.040000, 0.000000, 5.117393
0.050000, 0.009304,28
0.070000, -0.009304, 6.280436
0.080000, 0.000000, 6.513045
0.090000, 0.000000, 6.513045
0.100000, 0.000000, 6.513045
0.110000, 0.009304, 6.745654
0.120000, -0.009304, 6.745654
0.130000, 0.018609, 6.978263
0.140000, -0.009304, 6.745654
0.150000, 0.000000, 6.978263
0.160000, 0.009304, 6.745654
0.170000, 0.000000,0.200000, 0.000000, 6.978263
978263
0.270000, 0.000000, 6.978263
0.280000, 0.009304, 7.210871
0.290000, 0.000000, 6.978263
0.300000, 0.000000, 6.978263
0.310000, 0.000000, 6.978263
0.320000, 0.009304, 6.745654
0.330000, 0.000000, 6.978263
0.340000, 0.000000, 6.978263
0.350000, 0.009304, 6.745654
0.360000, 0.000000, 6.978263
0.370000, 0.009304, 7.210871
0.380000, 0.000000, 6.978263
0.390000, 0.000000, 6.263
0.410000, 0.000000, 6.978263
.009304, 7.210871
0.480000, 0.000000, 6.978263
0.490000, 0.000000, 6.
0.530000, 0.000000, 6.978263
0.540000, 0.009304, 6.745654
0.5500 0.000000, 6.978263
0.570000, 0.000000, 6.978263
0.580000, 0.000000,0.640000, 0.000000, 6.978263
0.650000, 0.000000, 6.978263
009304, 7.210871
0.670000, 0.009304, 6.745654
0.680000, 0.000000, 6.978263
0.690000, 0..000000, 6.978263
0.710000, 0.009304, 7.210871
0.720000, 0.000000, 6.978263
0.730000, 0.000000, 6.978263
0.750000, 0.000000, 6.978263
0.760000, 0.009304, 6.745654
0.770000, 0.000000, 6.978263
0.780000, 0.009304, 7.210871
0.790000, 0.000000, 6.978263
0.800000, 0.000000, 6.978263
0.810000, 0.000000, 6.9782
0.830000, 0.009304, 7.210871
0.840000, 0.000000, 6.978263
0.850000, 0.000000, 6.978263
0.860000, 0.000000, 6.978263
0.870000, 0.000000, 6.978263
0.880000, 0.018609, 6.978263
0.890000, 0.000000, 6.978263
0.900000, 0.000000, 6.978263
0.910000, 0.000000, 6.978263
0.920000, 0.009304, 6.745654
0.930000, 0.000000, 6.978263
0.940000, 0.000000, 6.978263
0.950000, 0.000000, 6.978263
0.960000, 0.009304, 6.745654
0.970000, -0.009304, 7.210871
0.980000, 0.018609, 6.978263
0.990000, 0.000000, 6.978263
1.000000, 0.000000, 6.978263
---------- decelerate
1.010000, 0.000000, 5.582610
1.020000, 0.000000, 3.256523
1.030000, 0.009304, 2.093479
1.040000, 0.000000, 1.395653
0.000000, 0.000000
1.090000, 0.00930.000000
1.110000, 0.000000, 0.0000001.130000, 0.009304, -0.232609
1.140000, 0.000000, 0.000000
1.150000, 0.000000, 0.000000
000000
1.230000, 0.000000, 0.0000001.250000, 0.000000, 0.000000
00
1.330000, 0.000000, 0.000000
1.340000, 0.000000, 0.000000
1.350000, 0.000000, 0.000000
1.360000, 0.000000, 0.000000

1.470000, 0.000000, 0.000000
1.480000, 0.000000, 0.000000
1.490000, 0.000000, 0.000000
1.50000000
1.560000, 0.000000, 0.000000
1.570000, 0.000000, 0.000000
1.580000, 0.000000, 0.000000
1.590000, 0.000000, 0.000000
1.600000, 0.000000, 0.000000
1.610000, 0.000000, 0.000000
1.620000, 0.000000, 0.000000
1.630000, 0.000000, 0.000000
1.640000, 0.000000, 0.000000
1.650000, 0.000000, 0.000000
1.660000, 0.000000, 0.000000
1.670000, 0.000000, 0.000000
1.680000, 0.000000, 0.000000
1.690000, 0.000000, 0.000000
1.700000, 0.000000, 0.000000
1.710000, 0.000000, 0.000000
1.720000, 0.000000, 0.000000
1.730000, 0.000000, 0.000000
1.740000, 0.000000, 0.000000
1.750000, 0.000000, 0.000000
1.760000, 0.000000, 0.000000
1.770000, 0.000000, 0.000000
1.780000, 0.000000, 0.000000
1.790000, 0.000000, 0.000000
1.800000, 0.000000, 0.000000
1.810000, 0.000000, 0.000000
1.820000, 0.000000, 0.000000
1.830000, 0.000000, 0.000000
1.840000, 0.000000, 0.000000
1.850000, 0.000000, 0.000000
1.860000, 0.000000, 0.000000
1.870000, 0.000000, 0.000000
1.880000, 0.000000, 0.000000
1.890000, 0.000000, 0.000000
1.900000, 0.000000, 0.000000
1.910000, 0.000000, 0.000000
1.920000, 0.000000, 0.000000
1.930000, 0.000000, 0.000000
1.940000, 0.000000, 0.000000
1.950000, 0.000000, 0.000000
1.960000, 0.000000, 0.000000
1.970000, 0.000000, 0.000000
1.980000, 0.000000, 0.000000
1.990000, 0.000000, 0.000000
Test params: step 0.010000, total time 2.000000, motor angular speed 0.300000
time_seconds, velocity_linear, velocity_angular
0.000000, 0.000000, 0.00000
0.010000, 0.000000, 8.373915
0.020000, 0.000000, 6.513045
0.030000, 0.000000, 7.443480
0.040000, 0.009304, 7.676089
0.050000, 0.000000, 8.373915
0.060000, -0.009304, 9.071741
0.070000, 0.000000, 9.304350
0.080000, 0.000000, 9.304350
0.090000, 0.000000, 10.234785
0.100000, 0.009304, 10.002177
0.110000, 0.000000, 10.234785
0.120000, 0.000000, 10.700003
0.130000, 0.000000, 10.234785
0.140000, 0.018609, 10.700003
0.150000, 0.000000, 10.700003
0.160000, 0.009304, 10.467394
0.170000, 0.000000, 10.700003
0.180000, 0.009304, , 10.700003
0.200000, 0.009304, 10.932612
0.210000, 0.000000, 10.700003
0.220000, 0.018609, 10.700003
0.230000, 0.000000, 10.700003
0.240000, 0.009304, 10.932612
0.260000, 0.009304, 10.932612
0.270000, 0.000000, 10.700003
0.280000, 0.009304, 10.932612
0.290000, 0.000000, 10.700003
0.300000,0, 0.009304, 10.932612
0.320000, 0.0, 10.700003
0.350000, 0.009304, 10.93210.932612
0.370000, 0.000000, 10.700003
0.380000, 0.009304, 10.932612
0.410000, 0.000000, 10.700003
0.420000, 0.009304, 10.932612
0000, 10.700003
0.460000, 0.00930.009304, 10.932612
0.480000, 0.009304, 10.932612
0.490000, 0.000000, 10.700003
0.500000, 0.009304, 10.932612
0.510000, 0.0186090, 10.700003
0.530000, 0.009304, 10.932612
0.540000, 0.000000, 10.7000012
0.560000, 0.009304, 10.932612
0.570000, 0.000000, 10.700003
0.590000, 0.018609, 10.700003
0.009304, 10.932612
0.610000, 0., 0.009304, 10.932612
0.630000, 0.000000, 10.700003
0.640000, 0.009304, 10.932612
0.650000, 0.009304, 10.932604, 10.932612
0.670000, 0.009304, 10.932612
0.680000, 0.000000, 10.700003
0.690000, 0.009304, 10.932612
0.710000, 0.000000, 10.700003
32612
0.840000, 0.009304, 10.932612
0.850000, 0.000000, 10.700003
0.860000, 0.009304, 10.932612
0.870000, 0.009304, 10.932612
0.920000, 0.009304, 10.932612
0.930000, 0.000000, 10.700003
0.940000, 0.009304, 10.932612
0.950000, 0.000000, 10.700003
0.960000, 0.009304, 10.932612
0.970000, 0.000000, 11.165220
0.980000, 0.000000, 10.700003
0.990000, 0.018609, 10.700003
1.000000, 0.009304, 10.932612
---------- decelerate
1.010000, 0.000000, 8.839133
1.020000, 0.009304, 5.350001
1.030000, 0.009304, 3.489131
1.040000, 0.009304, 2.558696
1.050000, 0.009304, 1.628261
1.060000, 0.000000, 0.930435
1.070000, 0.000000, 0.465218
1.080000, 0.000000, 0.465218
1.090000, 0.000000, 0.000000
1.100000, 0.000000, 0.0000000
1.200000, 0.000000, 0.000000
1.210000, 0.000000, 0.000000
1.320000, 0.000000, 0.000000
1.330000, 0.000000, 0.000000
1.340000, 0.000000, 0.000000
1.350000, 0.000000, 0.000000
1.360000, 0.000000, 0.000000
1.370000, 0.000000, 0.000000
1.380000, 0., 0.000000
1.400000, 0.000000, 0.01.430000, 0.000000, 0.000000
00, 0.000000, 0.000000
1.460000, 0.000000, 0.000000
1.470000, 0.000000, 0.000000
1.480000, 0.000000, 0.000000
1.490000, 0.000000, 0.000000
1.500000, 0.000000, 0.000000
1.510000, 0.000000, 0.00001.530000, 0.000000, 0.000000
1.540000, 0.000000, 0.000000
1.50000
1.600000, 0.000000, 0.000000
1.610000, 0.000000, 0.000000
1.630000, 0.000000, 0.000000
1.6600 0.000000, 0.000000
1.680000, 0.000000, 0.000000
1.690000, 0.000000, 0.000000
1.700000, 0.000000, 0.000000
1.710000, 0.000000, 0.000000
1.720000, 0.000000, 0.000000
1.730000, 0.000000, 0.000000
1.740000, 0.000000, 0.000000
1.750000, 0.000000, 0.000000
1.760000, 0.000000, 0.000000
1.770000, 0.000000, 0.000000
1.780000, 0.000000, 0.000000
1.790000, 0.000000, 0.000000
1.800000, 0.000000, 0.000000
1.810000, 0.000000, 0.000000
1.820000, 0.000000, 0.000000
1.830000, 0.000000, 0.000000
1.840000, 0.000000, 0.000000
1.850000, 0.000000, 0.000000
1.860000, 0.000000, 0.000000
1.870000, 0.000000, 0.000000
1.880000, 0.000000, 0.000000
1.890000, 0.000000, 0.000000
1.900000, 0.000000, 0.000000
1.910000, 0.000000, 0.000000
1.920000, 0.000000, 0.000000
1.930000, 0.000000, 0.000000
1.940000, 0.000000, 0.000000
1.950000, 0.000000, 0.000000
1.960000, 0.000000, 0.000000
1.970000, 0.000000, 0.000000
1.990000Test params: step 0.010000, total time 2.000000, motor angular speed 0.400000
time_seconds, velocity_linear, velocity_angular
0.000000, 0.000000, 0.00000
0.010000, 0.000000, 10.700003
0.020000, -0.009304, 8.141306
0.030000, -000, 12.560873
0.080000, 0.009304, 10.150000, 0.009304, 14.189134
0.160000, 0.018609, 14.421743
0.170000, 0.018609, 14.421743
0.180000, 0.009304, 14.654352
0.190000, 0.009304, 14.189134
0.200000, 0.009304, 14.654352
0.210000, 0.009304, 14.654352
0.220000, 0.018609, 14.421743
0.230000, 0.009304, 14.654352
0.240000, 0.018609, 1352
0.260000, 0.009304, 14.654352
0.270000, 0.018609, 14.421743
0.280000, 0.009304, 14.654352
0.290000, 0.009304, 14.654352
0.300000, 0.009304, 14.654352
.018609, 14.886960
0.360000, 0.009304, 14.654352
0.370000, 0.018609, 04, 14.654352
0.390000, 0.0099304, 14.654352
0.410000, 0.018609, 14886960
0.440000, 0.009304, 14.654352
0.450000, 0.018609, 14.421743

0.470000, 0.009304, 14.654352
0.480000,14.421743
0.570000, 0.009304, 14.65352
0.610000, 0.018609, 14.421743
0.620000, 0.009304, 14.654352
0.630000, 0.009304, 14.654352
0.640000, 0.009304, 14.654352
0.650000, , 0.009304, 14.654352
0.670000, 0.018609, 14.421743
0.680000, 0.009304, 14.654352
0.690000, 0.009304, 14.654352
0.700000, 0.027913, 14.654352
0.710000, 0.009304, 14.654352
0.720000, 0.018609, 14.421743
0.730000, 0.009304, 14.654352
0.740000, 0.009304, 14.654352
0.750000, 0.009304, 14.654352
0.760000, 0.018609, 14.421743
0.770000, 0.009304, 14.654352
0.780000, 0.009304, 14.654352
0.79000.018609, 14.421743
0.810000, 0.009304, 14.654352
0.820000, 0.009304, 14.654352
0.830000, 
0.920000, 0.018609, 14.421743
0.940000, 0.009304, 14.654352
1.060000, 0.000000,270000, 0.000000, 0.000000
1.280000, 0.000000, 0.000000
1.290000, 0.000000, 0.000000
1.300000, 0.000
1.440000, 0.000000, 0.000000
00
1.460000, 0.000000, 0.000000
.000000, 0.000000
1.520000, 0.000000, 0.000000
1.540000, 0.000000, 0000000
1.560000, 0.000000, 0.000000
1.580000, 0.000000, 0.000000
000, 0.000000, 0.000000
1.600000, 0.000000, 0.000000
1.610000, 0.000, 0.000000
1.630000, 0.000000, 0.000000
1.640000, 0.000000, 0.000000
1.650000, 0.000000, 0.000000
1.660000, 0.000000, 0.000000
1.670000, 0.000000, 0.000000
1.680000, 0.000000, 0.000000
1.690000, 0.000000, 0.000000
1.700000, 0.000000, 0.000000
1.710000, .000000, 0.000000
1.730000, 0.000000, 0.000000
1.740000, 0.000000, 0.000000
1.750000, 0.000000, 0.000000
1.760000, 0.000000, 0.000000
1.770000, 0.000000, 0.000000
1.780000, 0.000000, 0.000000
1.790000, 0.000000, 0.000000
1.800000, 0.000000, 0.000000
1.810000, 0.000000, 0.000000
1.820000, 0.000000, 0.000000
1.830000, 0.000000, 0.000000
1.840000, 0.000000, 0.000000
1.850000, 0.000000, 0.000000
1.860000, 0.000000, 0.000000
1.870000, 0.000000, 0.000000
1.880000, 0.000000, 0.000000
1.890000, 0.000000, 0.000000
1.900000, 0.000000, 0.000000
1.910000, 0.000000, 0.000000
1.920000, 0.000000, 0.000000
1.930000, 0.000000, 0.000000
1.940000, 0.000000, 0.000000
1.950000, 0.000000, 0.000000
1.960000, 0.000000, 0.000000
1.970000, 0.000000, 0.000000
1.980000, 0.000000, 0.000000
1.990000, 0.000000, 0.000000
Test params: step 0.010000, total time 2.000000, motor angular speed 0.500000
time_seconds, velocity_linear, velocity_angular
0.000000, 0.000000, 0.00000
0.010000, -0.018609, 13.026090
0.020000, 0.009304, 10.467394
0.030000, 0.000000, 12.095655
0.040000, 0.000000, 13.491308
0.050000, 0.000000, 13.491308
0.060000, -0.0095.584787
0.090000, 0.009304, 16.050004
0.100000, 0.000000, 16.747830
0.110000, 0.009304, 16.515222
0.120000, 0.009304, 17.445657
0.130000, 0.000000, 17.213048
0.140000, 0.009304, 17.445657
0.150000, 0.018609, 17.678265
018609, 18.143483
0.200000, 0.018.018609, 18.143483
0.230000, 0.018609, 18.143483
0.240000, 0.037217, 18.143483
0.250000, 0.018609, 18.143483
0.260000, 0.018609, 18.143483
0.270000, 0.018609, 18.143483
0.280000, 0.027913, 18.376092
0.290000, 0.018609, 18.143483
0.300000, 0.018609, 18.143483
0.310000, 0.027913, 17.910874
0.320000, 0.018609, 18.143483
0.330000, 0.018609, 18.143483
0.340000, 0.018609, 18.143483
0.350000, 0.018609, 18.143483
0.360000, 0.027913, 17.910874
0.370000, 0.018609, 18.143483
0.380000, 0.027913, 18.376092
0.390000, 0.018609, 18.143483
0.400000, 0.027913, 17.910874
0.410000, 0.018609, 18.143483
0.420000, 0.018609, 18.143483
0.430000, 0.027913, 17.910874
0.440000, 0.027913, 18.376092
0.450000, 0.018609, 18.143483
0.460000, 0.018609, 18.143483
0.470000, 0.018609, 18.143483
0.480000, 0.018609, 18.143483
0.490000, 0.027913, 17.910874
0.500000, 0.018609, 18.143483
0.510000, 0.018609, 18.143483
0.520000, 0.018609, 18.143483
0.530000, 0.018609, 18.143483
0.540000, 0.027913, 18.376092
0.550000, 0.027913, 17.910874
0.560000, 0.018609,3
0.580000, 0.027913, 18.376092
0.590000, 0.018609, 18.143483
0.600000, 0.018609, 18.143483
0.620000, 0.018609, 18.143483
0.630000, 0.018609, 18.143483
0.640000, 0.018609, 18.143483
0.650000, 0.018609, 18.143483
0.6600 0.018609, 18.143483
0.6800027913, 18.376092
0.720000, 0.027913, 17.910874
0.730000, 0.018609, 18.143483
0.740000, 0.018609, 18.143483
0.750000, 0.018609, 18.143483
0.760000, 0.027913, 17.910874
0.770000, 0.018609, 18.143483
0.780000, 0.027913, 17.910874
0.790000, 0.018609, 18.143483
0.800000, 0.018609, 18.143483
0.810000, 0.027913, 17.910874
0.820000, 0.018609, 18.143483
0.830000, 0.018609, 18.143483
0.840000, 0.018609, 18.143483
0.850000, 0.027913, 17.910874
0.860000, 0.018609, 18.143483
0.870000, 0.018609, 18.143483
0.880000, 0.027913, 18.376092
0.890000, 0.018609, 18.143483
0.900000, 0.027913, 17.910874
0.910000, 0.018609, 18.143483
0.920000, 0.018609, 18.0.950000, 0.018609, 18.143483
018609, 18.143483
0.98009, 14.886960
1.020000, 0.027913, 9.536959
1.030000, 0.027913, 6.2804360000, 0.009304, 2.093479
1.07304, 0.232609
1.100000, 0.000000, 0.000000
1.110000, 0.000000, 0.000000
1.120000, -0.009304, -0.232609
1.130000, 0.000000, 0.000000
1.140000, 0.000000, 0.000000
1.150000, 0.000000, 0.000000
1.160000, 0.000000, 0.000000
1.1000, 0.000000, 0.000000
1.190000, 0.000000, 0.000000
1.200000, 0.000000, 0.000000
1.210000, 0.000000, 0.000000
1.220000, 0.000000, 0.000000
1.230000, 0.000000, 0.000000
1.240000, 0.000000, 0.000000
1.250000, 0.000000, 0.000000
1.260000, 0.000000, 0.000000
1.270000, 0.000000, 0.000000
1.280000, 0.000000, 0.000000
1.290000, 0.000000, 0.000000
1.300000, 0.000000, 0.000000
1.310000, 0.000000, 0.000000
1.320000, 0.000000, 0.000000
1.330000, 0.000000,1.350000, 0.000000, 0.000000
1.360000, 0.000000, 0.000000
1.370000, 0.000000, 0.000000
1.380000, 0.000000, 0.000000
00000, 0.000000
1.410000, 0.000000, 0.000000
1.420000, 0.000000, 0.000000
1.430000, 0.000000, 0.000000
1.440000, 0.000000, 0.000000
1.450000, 0.000000, 0.01.480000, 0.000000, 0.000000
1.490000, 0.000000, 0.000000
00, 0.000000, 0.000000
1.510000, 0.000000, 0.000000
1.520000, 0.000000, 0.000000
1.530000, 0.0000
1.560000, 0.000000, 0.00000
1.580000, 0.000000, 0.000000
1.590000, 0.000000, 0.000000
1.6000000, 0.000000, 0.000000
1.630000, 0.000
1.690000, 0.000000, 0.00000000000, 0.000000
1.720000, 0.000000, 0.000000
1.730000, 0.000000, 0.000000
1.740000, 0.000000, 0.000000
1.750000, 0.000000, 0
1.770000, 0.000000, 0.000000
1.780000, 0.000000, 0.000000
1.790000, 0.000000, 0.000000
1.800000, 0.000000, 0.000000
1.810000, 0.000000, 0.000000
1.820000, 0.000000, 0.000000
1.830000, 0.000000, 0.000000
1.840000, 0.000000, 0.000000
1.850000, 0.000000, 0.000000
1.860000, 0.000000, 0.000000
1.870000, 0.000000, 0.000000
1.880000, 0.000000, 0.000000
1.890000, 0.000000, 0.000000
1.900000, 0.000000, 0.000000
00, 0.000000, 0.000000
1.940000, 0.000000, 0.000000
1.950000, 0.000000, 0.000000
1.960000, 0.000000, 0.000000
1.970000, 0.000000, 0.000000
1.980000, 0.000000, 0.000000
1.990000, 0.000000, 0.000000
Test params: step 0.010000, total time 2.000000, motor angular speed 0.600000
time_seconds, velocity_linear, velocity_angular
0.000000, 0.000000, 0.00000
0.010000, 0.000000, 14.886960
0.020000, 0.000000, 12.095655
0.030000, 0.000000, 14.421743
0.040000, 0.000000, 15.352178
0.050000, 0.000000, 16.282613
0.060000, -0.009304, 17.445657
0.070000, 0.009304, 17.445657
0.080000, -0.009304, 18.376092
0.090000, 0.009304, 18.376092
0.100000, 0.009304, 19.306527
0.110000, 0.009304, 19.771744
0.120000, 0.009304, 20.236962
0.130000, 0.009304, 20.236962
0.140000, 0.018609, 20.469571
0.150000, 0.018609, 20.934788
0.160000, 0.018609, 20.934788
0.170000, 0.018609, 20.934788
0.180000, 0.018609, 20.934788
0.190000, 0.009304, 21.167397
0.200000, 0.027913, 21.167397
0.210000, 0.018609, 21.400006
0.220000, 0.027913, 21.167397
0.230000, 0.018609, 21.400006
0.240000, 0.018609, 21.400006
0.250000, 0.027913, 21.632614
0.260000, 0.018609, 21.400006
0.270000, 0.027913, 21.167397
0.280000, 0.027913, 21.632614
0.290000, 0.018609, 21.400006
0.300000, 0.027913, 21.632614
0.310000, 0.018609, 21.400006
0.320000, 0.027913, 21.632614
0.330000, 0.018609, 21.400006
0.340000, 0.037217, 21.400006
0.350000, 0.018609, 21.400006
0.360000, 0.018609, 21.400006
0.370000, 0.027913, 21.632614
0.380000, 0.027913, 21.167397
0.390000, 0.027913, 21.632614
0.400000, 0.018609, 21.400006
0.410000, 0.018609, 21.400006
0.420000, 0.027913, 21.632614
0.430000, 0.018609, 21.400006
0.440000, 0.027913, 21.632614
0.450000, 0.018609, 21.400006
0.460000, 0.027913, 21.632614
0.470000, 0.018609, 21.400006
0.480000, 0.018609, 21.400006
0.490000, 0.037217, 21.400006
0.500000, 0.018609, 21.400006
0.510000, 0.027913, 21.632614
0.520000, 0.018609, 21.400006
0.530000, 0.027913, 21.632614
0.540000, 0.018609, 21.400006
0.550000, 0.027913, 21.632614
0.560000, 0.018609, 21.865223
0.570000, 0.027913, 21.632614
0.580000, 0.018609, 21.400006
0.590000, 0.027913, 21.632614
0.600000, 0.018609, 21.400006
0.610000, 0.037217, 21.400006
0.620000, 0.018609, 21.400006
0.630000, 0.027913, 21.632614
0.640000, 0.018609, 21.400006
0.650000, 0.027913, 21.632614
0.660000, 0.027913, 21.632614
0.670000, 0.027913, 21.167397
0.680000, 0.027913, 21.632614
0.690000, 0.018609, 21.400006
0.700000, 0.027913, 21.632614
0.710000, 0.037217, 21.400006
0.720000, 0.018609, 21.400006
0.730000, 0.018609, 21.400006
0.740000, 0.027913, 21.632614
0.750000, 0.018609, 21.400006
0.760000, 0.027913, 21.632614
0.770000, 0.018609, 21.400006
0.780000, 0.027913, 21.632614
0.790000, 0.027913, 21.167397
0.800000, 0.027913, 21.632614
0.810000, 0.018609, 21.400006
0.820000, 0.027913, 21.632614
0.830000, 0.027913, 21.632614
0.840000, 0.018609, 21.400006
0.850000, 0.027913, 21.632614
0.860000, 0.018609, 21.400006
0.870000, 0.027913, 21.632614
0.880000, 0.018609, 21.400006
0.890000, 0.037217, 21.400006
0.900000, 0.018609, 21.400006
0.910000, 0.037217, 21.400006
0.920000, 0.027913, 21.632614
0.930000, 0.027913, 21.167397
0.940000, 0.027913, 21.632614
0.950000, 0.018609, 21.400006
0.960000, 0.037217, 21.400006
0.970000, 0.027913, 21.632614
0.980000, 0.027913, 21.167397
0.990000, 0.027913, 21.632614
1.000000, 0.018609, 21.400006
---------- decelerate
1.010000, 0.037217, 17.678265
1.020000, 0.027913, 11.397829
1.030000, 0.018609, 7.443480
1.040000, 0.018609, 5.117393
1.050000, 0.009304, 3.489131
1.060000, 0.009304, 2.093479
1.070000, 0.009304, 1.628261
1.080000, 0.000000, 0.930435
1.090000, 0.000000, 0.930435
1.100000, 0.009304, 0.232609
1.110000, 0.018609, 0.000000
1.120000, 0.009304, 0.232609
1.130000, 0.000000, 0.000000
1.140000, 0.000000, 0.000000
1.150000, 0.000000, 0.000000
1.160000, 0.000000, 0.000000
1.170000, 0.000000, 0.000000
1.180000, 0.000000, 0.000000
1.190000, 0.000000, 0.000000
1.200000, 0.000000, 0.000000
1.210000, 0.000000, 0.000000
1.220000, 0.000000, 0.000000
1.230000, 0.000000, 0.000000
1.240000, 0.000000, 0.000000
1.250000, 0.000000, 0.000000
1.260000, 0.000000, 0.000000
1.270000, 0.000000, 0.000000
1.280000, 0.000000, 0.000000
1.290000, 0.000000, 0.000000
1.300000, 0.000000, 0.000000
1.310000, 0.000000, 0.000000
1.320000, 0.000000, 0.000000
1.330000, 0.000000, 0.000000
1.340000, 0.000000, 0.000000
1.350000, 0.000000, 0.000000
1.360000, 0.000000, 0.000000
1.370000, 0.000000, 0.000000
1.380000, 0.000000, 0.000000
1.390000, 0.000000, 0.000000
1.400000, 0.000000, 0.000000
1.410000, 0.000000, 0.000000
1.420000, 0.000000, 0.000000
1.430000, 0.000000, 0.000000
1.440000, 0.000000, 0.000000
1.450000, 0.000000, 0.000000
1.460000, 0.000000, 0.000000
1.470000, 0.000000, 0.000000
1.480000, 0.000000, 0.000000
1.490000, 0.000000, 0.000000
1.500000, 0.000000, 0.000000
1.510000, 0.000000, 0.000000
1.520000, 0.000000, 0.000000
1.530000, 0.000000, 0.000000
1.540000, 0.000000, 0.000000
1.550000, 0.000000, 0.000000
1.560000, 0.000000, 0.000000
1.570000, 0.000000, 0.000000
1.580000, 0.000000, 0.000000
1.590000, 0.000000, 0.000000
1.600000, 0.000000, 0.000000
1.610000, 0.000000, 0.000000
1.620000, 0.000000, 0.000000
1.630000, 0.000000, 0.000000
1.640000, 0.000000, 0.000000
1.650000, 0.000000, 0.000000
1.660000, 0.000000, 0.000000
1.670000, 0.000000, 0.000000
1.680000, 0.000000, 0.000000
1.690000, 0.000000, 0.000000
1.700000, 0.000000, 0.000000
1.710000, 0.000000, 0.000000
1.720000, 0.000000, 0.000000
1.730000, 0.000000, 0.000000
1.740000, 0.000000, 0.000000
1.750000, 0.000000, 0.000000
1.760000, 0.000000, 0.000000
1.770000, 0.000000, 0.000000
1.780000, 0.000000, 0.000000
1.790000, 0.000000, 0.000000
1.800000, 0.000000, 0.000000
1.810000, 0.000000, 0.000000
1.820000, 0.000000, 0.000000
1.830000, 0.000000, 0.000000
1.840000, 0.000000, 0.000000
1.850000, 0.000000, 0.000000
1.860000, 0.000000, 0.000000
1.870000, 0.000000, 0.000000
1.880000, 0.000000, 0.000000
1.890000, 0.000000, 0.000000
1.900000, 0.000000, 0.000000
1.910000, 0.000000, 0.000000
1.920000, 0.000000, 0.000000
1.930000, 0.000000, 0.000000
1.940000, 0.000000, 0.000000
1.950000, 0.000000, 0.000000
1.960000, 0.000000, 0.000000
1.970000, 0.000000, 0.000000
1.980000, 0.000000, 0.000000
1.990000, 0.000000, 0.000000
Test params: step 0.010000, total time 2.000000, motor angular speed 0.700000
time_seconds, velocity_linear, velocity_angular
0.000000, 0.000000, 0.00000
0.010000, 0.000000, 16.282613
0.020000, 0.000000, 13.491308
0.030000, 0.000000, 15.817395
0.040000, 0.000000, 17.678265
0.050000, 0.009304, 18.376092
0.060000, -0.009304, 19.306527
0.070000, 0.000000, 20.004353
0.080000, 0.000000, 20.469571
0.090000, 0.000000, 20.934788
0.100000, 0.000000, 21.400006
0.110000, 0.009304, 22.097832
0.120000, 0.009304, 22.563049
0.130000, 0.018609, 22.795658
0.140000, 0.009304, 23.028267
0.150000, 0.027913, 23.028267
0.160000, 0.027913, 23.493484
0.170000, 0.018609, 23.726093
0.180000, 0.027913, 23.493484
0.190000, 0.018609, 23.726093
0.200000, 0.018609, 24.191311
0.210000, 0.027913, 23.958702
0.220000, 0.018609, 24.191311
0.230000, 0.027913, 23.958702
0.240000, 0.018609, 24.191311
0.250000, 0.018609, 24.191311
0.260000, 0.027913, 23.958702
0.270000, 0.018609, 24.191311
0.280000, 0.018609, 24.191311
0.290000, 0.037217, 24.191311
0.300000, 0.018609, 24.191311
0.310000, 0.027913, 24.423919
0.320000, 0.018609, 24.191311
0.330000, 0.027913, 24.423919
0.340000, 0.018609, 24.191311
0.350000, 0.037217, 24.191311
0.360000, 0.018609, 24.191311
0.370000, 0.027913, 24.423919
0.380000, 0.018609, 24.191311
0.390000, 0.027913, 24.423919
0.400000, 0.018609, 24.191311
0.410000, 0.027913, 24.423919
0.420000, 0.037217, 24.191311
0.430000, 0.018609, 24.191311
0.440000, 0.027913, 24.423919
0.450000, 0.027913, 24.423919
0.460000, 0.027913, 24.423919
0.470000, 0.027913, 24.423919
0.480000, 0.027913, 24.423919
0.490000, 0.018609, 24.191311
0.500000, 0.027913, 24.423919
0.510000, 0.027913, 24.423919
0.520000, 0.037217, 24.191311
0.530000, 0.027913, 24.423919
0.540000, 0.037217, 24.191311
0.550000, 0.027913, 24.423919
0.560000, 0.027913, 24.423919
0.570000, 0.027913, 24.423919
0.580000, 0.037217, 24.191311
0.590000, 0.027913, 24.423919
0.600000, 0.018609, 24.191311
0.610000, 0.027913, 24.423919
0.620000, 0.037217, 24.191311
0.630000, 0.027913, 24.423919
0.640000, 0.037217, 24.656528
0.650000, 0.037217, 24.191311
0.660000, 0.027913, 24.423919
0.670000, 0.027913, 24.423919
0.680000, 0.027913, 24.423919
0.690000, 0.027913, 24.423919
0.700000, 0.037217, 24.191311
0.710000, 0.027913, 24.423919
0.720000, 0.018609, 24.191311
0.730000, 0.018609, 24.656528
0.740000, 0.027913, 24.423919
0.750000, 0.027913, 24.423919
0.760000, 0.037217, 24.191311
0.770000, 0.018609, 24.191311
0.780000, 0.027913, 24.423919
0.790000, 0.027913, 24.423919
0.800000, 0.018609, 24.191311
0.810000, 0.037217, 24.191311
0.820000, 0.018609, 24.191311
0.830000, 0.027913, 24.423919
0.840000, 0.018609, 24.191311
0.850000, 0.027913, 24.423919
0.860000, 0.037217, 24.191311
0.870000, 0.027913, 24.423919
0.880000, 0.027913, 24.423919
0.890000, 0.018609, 24.191311
0.900000, 0.027913, 24.423919
0.910000, 0.027913, 24.423919
0.920000, 0.018609, 24.191311
0.930000, 0.027913, 24.423919
0.940000, 0.018609, 24.191311
0.950000, 0.027913, 24.423919
0.960000, 0.018609, 24.191311
0.970000, 0.027913, 24.423919
0.980000, 0.018609, 24.191311
0.990000, 0.018609, 24.191311
1.000000, 0.027913, 24.423919
---------- decelerate
1.010000, 0.037217, 20.004353
1.020000, 0.027913, 13.258699
1.030000, 0.027913, 8.606524
1.040000, 0.018609, 5.582610
1.050000, 0.009304, 3.954349
1.060000, 0.018609, 2.326088
1.070000, 0.000000, 1.860870
1.080000, 0.009304, 1.163044
1.090000, 0.018609, 0.930435
1.100000, 0.000000, 0.465218
1.110000, 0.009304, 0.697826
1.120000, 0.000000, 0.000000
1.130000, 0.000000, 0.000000
1.140000, -0.009304, -0.232609
1.150000, 0.000000, 0.000000
1.160000, 0.000000, 0.000000
1.170000, 0.000000, 0.000000
1.180000, 0.000000, 0.000000
1.190000, 0.000000, 0.000000
1.200000, 0.000000, 0.000000
1.210000, 0.000000, 0.000000
1.220000, 0.000000, 0.000000
1.230000, 0.000000, 0.000000
1.240000, 0.000000, 0.000000
1.250000, 0.000000, 0.000000
1.260000, 0.000000, 0.000000
1.270000, 0.000000, 0.000000
1.280000, 0.000000, 0.000000
1.290000, 0.000000, 0.000000
1.300000, 0.000000, 0.000000
1.310000, 0.000000, 0.000000
1.320000, 0.000000, 0.000000
1.330000, 0.000000, 0.000000
1.340000, 0.000000, 0.000000
1.350000, 0.000000, 0.000000
1.360000, 0.000000, 0.000000
1.370000, 0.000000, 0.000000
1.380000, 0.000000, 0.000000
1.390000, 0.000000, 0.000000
1.400000, 0.000000, 0.000000
1.410000, 0.000000, 0.000000
1.420000, 0.000000, 0.000000
1.430000, 0.000000, 0.000000
1.440000, 0.000000, 0.000000
1.450000, 0.000000, 0.000000
1.460000, 0.000000, 0.000000
1.470000, 0.000000, 0.000000
1.480000, 0.000000, 0.000000
1.490000, 0.000000, 0.000000
1.500000, 0.000000, 0.000000
1.510000, 0.000000, 0.000000
1.520000, 0.000000, 0.000000
1.530000, 0.000000, 0.000000
1.540000, 0.000000, 0.000000
1.550000, 0.000000, 0.000000
1.560000, 0.000000, 0.000000
1.570000, 0.000000, 0.000000
1.580000, 0.000000, 0.000000
1.590000, 0.000000, 0.000000
1.600000, 0.000000, 0.000000
1.610000, 0.000000, 0.000000
1.620000, 0.000000, 0.000000
1.630000, 0.000000, 0.000000
1.640000, 0.000000, 0.000000
1.650000, 0.000000, 0.000000
1.660000, 0.000000, 0.000000
1.670000, 0.000000, 0.000000
1.680000, 0.000000, 0.000000
1.690000, 0.000000, 0.000000
1.700000, 0.000000, 0.000000
1.710000, 0.000000, 0.000000
1.720000, 0.000000, 0.000000
1.730000, 0.000000, 0.000000
1.740000, 0.000000, 0.000000
1.750000, 0.000000, 0.000000
1.760000, 0.000000, 0.000000
1.770000, 0.000000, 0.000000
1.780000, 0.000000, 0.000000
1.790000, 0.000000, 0.000000
1.800000, 0.000000, 0.000000
1.810000, 0.000000, 0.000000
1.820000, 0.000000, 0.000000
1.830000, 0.000000, 0.000000
1.840000, 0.000000, 0.000000
1.850000, 0.000000, 0.000000
1.860000, 0.000000, 0.000000
1.870000, 0.000000, 0.000000
1.880000, 0.000000, 0.000000
1.890000, 0.000000, 0.000000
1.900000, 0.000000, 0.000000
1.910000, 0.000000, 0.000000
1.920000, 0.000000, 0.000000
1.930000, 0.000000, 0.000000
1.940000, 0.000000, 0.000000
1.950000, 0.000000, 0.000000
1.960000, 0.000000, 0.000000
1.970000, 0.000000, 0.000000
1.980000, 0.000000, 0.000000
1.990000, 0.000000, 0.000000
Test params: step 0.010000, total time 2.000000, motor angular speed 0.800000
time_seconds, velocity_linear, velocity_angular
0.000000, 0.000000, 0.00000
0.010000, 0.000000, 17.678265
0.020000, 0.000000, 14.886960
0.030000, -0.009304, 17.445657
0.040000, 0.000000, 19.539136
0.050000, -0.009304, 20.702179
0.060000, 0.009304, 21.632614
0.070000, 0.009304, 22.563049
0.080000, 0.009304, 23.028267
0.090000, 0.009304, 23.493484
0.100000, 0.009304, 23.958702
0.110000, 0.009304, 24.423919
0.120000, 0.000000, 24.656528
0.130000, 0.009304, 25.354354
0.140000, 0.027913, 25.819572
0.150000, 0.018609, 26.052181
0.160000, 0.018609, 26.052181
0.170000, 0.037217, 26.517398
0.180000, 0.027913, 26.750007
0.190000, 0.027913, 26.750007
0.200000, 0.027913, 27.215224
0.210000, 0.037217, 27.447833
0.220000, 0.027913, 27.215224
0.230000, 0.037217, 27.447833
0.240000, 0.037217, 27.447833
0.250000, 0.027913, 27.215224
0.260000, 0.027913, 27.680442
0.270000, 0.018609, 27.447833
0.280000, 0.037217, 27.447833
0.290000, 0.027913, 27.680442
0.300000, 0.027913, 27.680442
0.310000, 0.027913, 27.680442
0.320000, 0.018609, 27.447833
0.330000, 0.027913, 27.680442
0.340000, 0.027913, 27.680442
0.350000, 0.027913, 27.680442
0.360000, 0.018609, 27.447833
0.370000, 0.018609, 27.913051
0.380000, 0.027913, 27.680442
0.390000, 0.027913, 27.680442
0.400000, 0.018609, 27.447833
0.410000, 0.018609, 27.913051
0.420000, 0.027913, 27.680442
0.430000, 0.027913, 27.680442
0.440000, 0.027913, 27.680442
0.450000, 0.027913, 27.680442
0.460000, 0.018609, 27.447833
0.470000, 0.037217, 27.447833
0.480000, 0.027913, 27.680442
0.490000, 0.027913, 27.680442
0.500000, 0.018609, 27.447833
0.510000, 0.027913, 27.680442
0.520000, 0.027913, 27.680442
0.530000, 0.027913, 27.680442
0.540000, 0.027913, 27.680442
0.550000, 0.018609, 27.913051
0.560000, 0.037217, 27.447833
0.570000, 0.018609, 27.447833
0.580000, 0.027913, 27.680442
0.590000, 0.027913, 27.680442
0.600000, 0.027913, 27.680442
0.610000, 0.037217, 27.447833
0.620000, 0.027913, 27.680442
0.630000, 0.027913, 27.680442
0.640000, 0.027913, 27.680442
0.650000, 0.027913, 27.680442
0.660000, 0.027913, 27.215224
0.670000, 0.027913, 27.680442
0.680000, 0.037217, 27.447833
0.690000, 0.027913, 27.680442
0.700000, 0.027913, 27.680442
0.710000, 0.037217, 27.447833
0.720000, 0.027913, 27.215224
0.730000, 0.027913, 27.680442
0.740000, 0.027913, 27.680442
0.750000, 0.027913, 27.680442
0.760000, 0.027913, 27.680442
0.770000, 0.027913, 27.215224
0.780000, 0.027913, 27.680442
0.790000, 0.037217, 27.447833
0.800000, 0.027913, 27.680442
0.810000, 0.027913, 27.680442
0.820000, 0.037217, 27.447833
0.830000, 0.027913, 27.680442
0.840000, 0.027913, 27.680442
0.850000, 0.027913, 27.680442
0.860000, 0.027913, 27.680442
0.870000, 0.018609, 27.447833
0.880000, 0.027913, 27.680442
0.890000, 0.027913, 27.680442
0.900000, 0.037217, 27.447833
0.910000, 0.009304, 27.680442
0.920000, 0.037217, 27.447833
0.930000, 0.018609, 27.913051
0.940000, 0.037217, 27.447833
0.950000, 0.027913, 27.680442
0.960000, 0.018609, 27.913051
0.970000, 0.027913, 27.215224
0.980000, 0.027913, 27.680442
0.990000, 0.027913, 27.680442
1.000000, 0.027913, 27.680442
---------- decelerate
1.010000, 0.027913, 23.028267
1.020000, 0.046522, 15.584787
1.030000, 0.018609, 10.234785
1.040000, 0.027913, 6.280436
1.050000, 0.018609, 4.652175
1.060000, 0.018609, 2.791305
1.070000, 0.009304, 2.093479
1.080000, 0.009304, 1.628261
1.090000, 0.009304, 0.697826
1.100000, 0.000000, 0.930435
1.110000, 0.000000, 0.465218
1.120000, 0.009304, 0.232609
1.130000, 0.009304, 0.232609
1.140000, 0.000000, 0.000000
1.150000, 0.000000, 0.000000
1.160000, 0.000000, 0.000000
1.170000, 0.000000, 0.000000
1.180000, 0.000000, 0.000000
1.190000, 0.000000, 0.000000
1.200000, 0.000000, 0.000000
1.210000, 0.000000, 0.000000
1.220000, 0.000000, 0.000000
1.230000, 0.000000, 0.000000
1.240000, 0.000000, 0.000000
1.250000, 0.000000, 0.000000
1.260000, 0.000000, 0.000000
1.270000, 0.000000, 0.000000
1.280000, 0.000000, 0.000000
1.290000, 0.000000, 0.000000
1.300000, 0.000000, 0.000000
1.310000, 0.000000, 0.000000
1.320000, 0.000000, 0.000000
1.330000, 0.000000, 0.000000
1.340000, 0.000000, 0.000000
1.350000, 0.000000, 0.000000
1.360000, 0.000000, 0.000000
1.370000, 0.000000, 0.000000
1.380000, 0.000000, 0.000000
1.390000, 0.000000, 0.000000
1.400000, 0.000000, 0.000000
1.410000, 0.000000, 0.000000
1.420000, 0.000000, 0.000000
1.430000, 0.000000, 0.000000
1.440000, 0.000000, 0.000000
1.450000, 0.000000, 0.000000
1.460000, 0.000000, 0.000000
1.470000, 0.000000, 0.000000
1.480000, 0.000000, 0.000000
1.490000, 0.000000, 0.000000
1.500000, 0.000000, 0.000000
1.510000, 0.000000, 0.000000
1.520000, 0.000000, 0.000000
1.530000, 0.000000, 0.000000
1.540000, 0.000000, 0.000000
1.550000, 0.000000, 0.000000
1.560000, 0.000000, 0.000000
1.570000, 0.000000, 0.000000
1.580000, 0.000000, 0.000000
1.590000, 0.000000, 0.000000
1.600000, 0.000000, 0.000000
1.610000, 0.000000, 0.000000
1.620000, 0.000000, 0.000000
1.630000, 0.000000, 0.000000
1.640000, 0.000000, 0.000000
1.650000, 0.018609, 0.000000
1.660000, 0.000000, 0.000000
1.670000, 0.009304, 0.232609
1.680000, 0.000000, 0.000000
1.690000, 0.009304, 0.232609
1.700000, 0.009304, 0.232609
1.710000, 0.009304, 0.232609
1.720000, 0.000000, 0.000000
1.730000, 0.009304, -0.232609
1.740000, 0.000000, 0.000000
1.750000, 0.000000, 0.000000
1.760000, 0.000000, 0.000000
1.770000, 0.000000, 0.000000
1.780000, 0.000000, 0.000000
1.790000, 0.000000, 0.000000
1.800000, 0.000000, 0.000000
1.810000, 0.000000, 0.000000
1.820000, 0.000000, 0.000000
1.830000, 0.000000, 0.000000
1.840000, -0.009304, -0.232609
1.850000, -0.009304, -0.232609
1.860000, 0.000000, 0.000000
1.870000, 0.000000, 0.000000
1.880000, 0.000000, 0.000000
1.890000, 0.000000, 0.000000
1.900000, 0.000000, 0.000000
1.910000, 0.000000, 0.000000
1.920000, 0.000000, 0.000000
1.930000, 0.000000, 0.000000
1.940000, 0.000000, 0.000000
1.950000, 0.000000, 0.000000
1.960000, 0.000000, 0.000000
1.970000, 0.000000, 0.000000
1.980000, 0.000000, 0.000000
1.990000, 0.000000, 0.000000
